{
    "fluentMethods": true,
    "clientRootFolder": "",
    "relationships": [],
    "fields": [
        {
            "fieldName": "name",
            "fieldType": "String"
        }
    ],
    "changelogDate": "20200329170433",
    "dto": "no",
    "searchEngine": "elasticsearch",
    "service": "serviceClass",
    "entityTableName": "product_type",
    "databaseType": "sql",
    "readOnly": true,
    "jpaMetamodelFiltering": false,
    "pagination": "no"
}
